EESchema Schematic File Version 4
LIBS:puissance_metre-cache
EELAYER 30 0
EELAYER END
$Descr A4 11693 8268
encoding utf-8
Sheet 1 1
Title ""
Date ""
Rev ""
Comp ""
Comment1 ""
Comment2 ""
Comment3 ""
Comment4 ""
$EndDescr
$Comp
L puissance_metre-rescue:CONN_01X02 P2
U 1 1 5637DAC4
P 4900 950
F 0 "P2" H 4900 1100 50  0000 C CNN
F 1 "CONN_01X02" V 5000 950 50  0000 C CNN
F 2 "Socket_Strips:Socket_Strip_Straight_1x02" H 4900 950 60  0001 C CNN
F 3 "" H 4900 950 60  0000 C CNN
	1    4900 950 
	1    0    0    -1  
$EndComp
$Comp
L puissance_metre-rescue:C C2
U 1 1 5637DB5C
P 3550 2600
F 0 "C2" H 3575 2700 50  0000 L CNN
F 1 "0.1uF" H 3575 2500 50  0000 L CNN
F 2 "Capacitors_SMD:C_0603_HandSoldering" H 3588 2450 30  0001 C CNN
F 3 "" H 3550 2600 60  0000 C CNN
	1    3550 2600
	1    0    0    -1  
$EndComp
$Comp
L puissance_metre-rescue:C C1
U 1 1 5637DD40
P 3500 2050
F 0 "C1" H 3525 2150 50  0000 L CNN
F 1 "0.1uF" H 3525 1950 50  0000 L CNN
F 2 "Capacitors_SMD:C_0603_HandSoldering" H 3538 1900 30  0001 C CNN
F 3 "" H 3500 2050 60  0000 C CNN
	1    3500 2050
	0    1    1    0   
$EndComp
$Comp
L puissance_metre-rescue:C C4
U 1 1 5637DDA1
P 4750 1650
F 0 "C4" H 4775 1750 50  0000 L CNN
F 1 "0.1uF" H 4775 1550 50  0000 L CNN
F 2 "Capacitors_SMD:C_0603_HandSoldering" H 4788 1500 30  0001 C CNN
F 3 "" H 4750 1650 60  0000 C CNN
	1    4750 1650
	-1   0    0    1   
$EndComp
$Comp
L puissance_metre-rescue:C C5
U 1 1 5637DDDF
P 4900 2400
F 0 "C5" H 4925 2500 50  0000 L CNN
F 1 "0.1uF" H 4925 2300 50  0000 L CNN
F 2 "Capacitors_SMD:C_0603_HandSoldering" H 4938 2250 30  0001 C CNN
F 3 "" H 4900 2400 60  0000 C CNN
	1    4900 2400
	1    0    0    -1  
$EndComp
$Comp
L power:GND #PWR01
U 1 1 5637E0FA
P 4750 1800
F 0 "#PWR01" H 4750 1550 50  0001 C CNN
F 1 "GND" H 4750 1650 50  0000 C CNN
F 2 "" H 4750 1800 60  0000 C CNN
F 3 "" H 4750 1800 60  0000 C CNN
	1    4750 1800
	1    0    0    -1  
$EndComp
$Comp
L power:GND #PWR02
U 1 1 5637E11E
P 4900 2600
F 0 "#PWR02" H 4900 2350 50  0001 C CNN
F 1 "GND" H 4900 2450 50  0000 C CNN
F 2 "" H 4900 2600 60  0000 C CNN
F 3 "" H 4900 2600 60  0000 C CNN
	1    4900 2600
	1    0    0    -1  
$EndComp
$Comp
L power:GND #PWR03
U 1 1 5637E135
P 3550 2850
F 0 "#PWR03" H 3550 2600 50  0001 C CNN
F 1 "GND" H 3550 2700 50  0000 C CNN
F 2 "" H 3550 2850 60  0000 C CNN
F 3 "" H 3550 2850 60  0000 C CNN
	1    3550 2850
	1    0    0    -1  
$EndComp
$Comp
L power:GND #PWR04
U 1 1 5637E308
P 4200 3000
F 0 "#PWR04" H 4200 2750 50  0001 C CNN
F 1 "GND" H 4200 2850 50  0000 C CNN
F 2 "" H 4200 3000 60  0000 C CNN
F 3 "" H 4200 3000 60  0000 C CNN
	1    4200 3000
	1    0    0    -1  
$EndComp
$Comp
L power:GND #PWR05
U 1 1 5637E583
P 2750 2450
F 0 "#PWR05" H 2750 2200 50  0001 C CNN
F 1 "GND" H 2750 2300 50  0000 C CNN
F 2 "" H 2750 2450 60  0000 C CNN
F 3 "" H 2750 2450 60  0000 C CNN
	1    2750 2450
	1    0    0    -1  
$EndComp
$Comp
L power:GND #PWR06
U 1 1 5637E64F
P 4600 1100
F 0 "#PWR06" H 4600 850 50  0001 C CNN
F 1 "GND" H 4600 950 50  0000 C CNN
F 2 "" H 4600 1100 60  0000 C CNN
F 3 "" H 4600 1100 60  0000 C CNN
	1    4600 1100
	1    0    0    -1  
$EndComp
$Comp
L power:+5V #PWR07
U 1 1 5637E673
P 4600 800
F 0 "#PWR07" H 4600 650 50  0001 C CNN
F 1 "+5V" H 4600 940 50  0000 C CNN
F 2 "" H 4600 800 60  0000 C CNN
F 3 "" H 4600 800 60  0000 C CNN
	1    4600 800 
	1    0    0    -1  
$EndComp
$Comp
L puissance_metre-rescue:R R1
U 1 1 5637EBD3
P 4350 1150
F 0 "R1" V 4430 1150 50  0000 C CNN
F 1 "R" V 4350 1150 50  0000 C CNN
F 2 "Resistors_SMD:R_0603_HandSoldering" V 4280 1150 30  0001 C CNN
F 3 "" H 4350 1150 30  0000 C CNN
	1    4350 1150
	1    0    0    -1  
$EndComp
$Comp
L puissance_metre-rescue:R R2
U 1 1 5637E763
P 3050 2250
F 0 "R2" V 3130 2250 50  0000 C CNN
F 1 "50R" V 3050 2250 50  0000 C CNN
F 2 "Resistors_SMD:R_0603_HandSoldering" V 2980 2250 30  0001 C CNN
F 3 "" H 3050 2250 30  0000 C CNN
	1    3050 2250
	1    0    0    -1  
$EndComp
$Comp
L puissance_metre-rescue:R R3
U 1 1 5637E796
P 3200 2250
F 0 "R3" V 3280 2250 50  0000 C CNN
F 1 "50R" V 3200 2250 50  0000 C CNN
F 2 "Resistors_SMD:R_0603_HandSoldering" V 3130 2250 30  0001 C CNN
F 3 "" H 3200 2250 30  0000 C CNN
	1    3200 2250
	1    0    0    1   
$EndComp
Wire Wire Line
	3850 2050 3650 2050
Wire Wire Line
	3850 2350 3550 2350
Wire Wire Line
	3550 2350 3550 2450
Wire Wire Line
	4750 2200 4900 2200
Wire Wire Line
	4900 2200 4900 2250
Wire Wire Line
	5300 2200 5300 2150
Connection ~ 4900 2200
Wire Wire Line
	4350 1300 4350 1500
Wire Wire Line
	4350 1800 4200 1800
Wire Wire Line
	4750 1500 4350 1500
Connection ~ 4350 1800
Wire Wire Line
	4200 2600 4200 3000
Wire Wire Line
	3550 2750 3550 2850
Wire Wire Line
	2150 2050 3050 2050
Wire Wire Line
	4350 900  4600 900 
Wire Wire Line
	4600 900  4600 800 
Wire Wire Line
	4700 1000 4600 1000
Wire Wire Line
	4600 1000 4600 1100
Connection ~ 4350 1500
Wire Wire Line
	4350 900  4350 1000
Connection ~ 4600 900 
Wire Wire Line
	4900 2600 4900 2550
Wire Wire Line
	2750 2400 3050 2400
Connection ~ 2750 2400
Connection ~ 3050 2400
Wire Wire Line
	3050 2100 3050 2050
Connection ~ 3050 2050
Wire Wire Line
	3200 2100 3200 2050
Connection ~ 3200 2050
Wire Wire Line
	5350 4950 5550 4950
Text Label 5550 4950 0    60   ~ 0
A0
Text Label 5100 2200 0    60   ~ 0
A5
Text Label 4400 900  0    60   ~ 0
+5V
Text Label 4600 1050 0    60   ~ 0
GND
Text Label 3800 4050 2    60   ~ 0
GND
Text Label 3800 3900 2    60   ~ 0
+5V
Wire Wire Line
	3350 4300 3800 4300
$Comp
L puissance_metre-rescue:CONN_01X02 P6
U 1 1 56393321
P 6500 2350
F 0 "P6" H 6500 2500 50  0000 C CNN
F 1 "CONN_01X02" V 6600 2350 50  0000 C CNN
F 2 "Socket_Strips:Socket_Strip_Straight_1x02" H 6500 2350 60  0001 C CNN
F 3 "" H 6500 2350 60  0000 C CNN
	1    6500 2350
	-1   0    0    -1  
$EndComp
Text Label 8200 2300 0    60   ~ 0
+5V
Text Label 7300 2950 2    60   ~ 0
GND
$Comp
L puissance_metre-rescue:Arduino_Mini_Pro U2
U 1 1 56392421
P 4600 4600
F 0 "U2" H 4550 4600 60  0000 C CNN
F 1 "Arduino_Mini_Pro" H 4550 4500 60  0000 C CNN
F 2 "lib_kicad:Arduino_Mini_pro" H 4550 4600 60  0000 C CNN
F 3 "" H 4550 4600 60  0000 C CNN
	1    4600 4600
	1    0    0    -1  
$EndComp
$Comp
L puissance_metre-rescue:SMA J1
U 1 1 56393901
P 2000 2350
F 0 "J1" H 2125 2665 60  0000 C CNN
F 1 "SMA" H 2190 2590 60  0000 C CNN
F 2 "lib_kicad:SMA" H 2175 2520 50  0000 C CNN
F 3 "" H 2000 2350 60  0000 C CNN
	1    2000 2350
	-1   0    0    -1  
$EndComp
Wire Wire Line
	1950 2250 1950 2300
Wire Wire Line
	1950 2300 2000 2300
Wire Wire Line
	2750 2300 2750 2400
Wire Wire Line
	2000 2250 2000 2300
Connection ~ 2000 2300
Wire Wire Line
	2050 2250 2050 2300
Connection ~ 2050 2300
Wire Wire Line
	2100 2250 2100 2300
Connection ~ 2100 2300
$Comp
L puissance_metre-rescue:CONN_01X06 P4
U 1 1 563F5C35
P 2350 5900
F 0 "P4" H 2350 6250 50  0000 C CNN
F 1 "CONN_01X06" V 2450 5900 50  0000 C CNN
F 2 "Socket_Strips:Socket_Strip_Straight_1x06" H 2350 5900 60  0001 C CNN
F 3 "" H 2350 5900 60  0000 C CNN
	1    2350 5900
	-1   0    0    -1  
$EndComp
$Comp
L puissance_metre-rescue:CONN_01X08 P1
U 1 1 563F5CB7
P 2350 4650
F 0 "P1" H 2350 5100 50  0000 C CNN
F 1 "CONN_01X08" V 2450 4650 50  0000 C CNN
F 2 "Socket_Strips:Socket_Strip_Straight_1x08" H 2350 4650 60  0001 C CNN
F 3 "" H 2350 4650 60  0000 C CNN
	1    2350 4650
	-1   0    0    -1  
$EndComp
$Comp
L puissance_metre-rescue:CONN_01X08 P7
U 1 1 563F5EC0
P 7950 5850
F 0 "P7" H 7950 6300 50  0000 C CNN
F 1 "CONN_01X08" V 8050 5850 50  0000 C CNN
F 2 "Socket_Strips:Socket_Strip_Straight_1x08" H 7950 5850 60  0001 C CNN
F 3 "" H 7950 5850 60  0000 C CNN
	1    7950 5850
	1    0    0    -1  
$EndComp
$Comp
L puissance_metre-rescue:CONN_01X10 P5
U 1 1 563F5F16
P 7950 4650
F 0 "P5" H 7950 5200 50  0000 C CNN
F 1 "CONN_01X10" V 8050 4650 50  0000 C CNN
F 2 "Socket_Strips:Socket_Strip_Straight_1x10" H 7950 4650 60  0001 C CNN
F 3 "" H 7950 4650 60  0000 C CNN
	1    7950 4650
	1    0    0    -1  
$EndComp
Wire Wire Line
	3350 4300 3350 6150
Wire Wire Line
	3400 4400 3400 6200
Wire Wire Line
	3400 4400 3800 4400
Wire Wire Line
	3800 4750 3450 4750
Wire Wire Line
	3450 4750 3450 6100
Wire Wire Line
	3500 4850 3500 6050
Wire Wire Line
	3500 4850 3800 4850
Wire Wire Line
	7750 4600 6150 4600
Wire Wire Line
	6150 4600 6150 5150
Wire Wire Line
	6150 5150 5350 5150
Wire Wire Line
	5350 5250 6200 5250
Wire Wire Line
	6200 5250 6200 4700
Wire Wire Line
	6200 4700 7750 4700
Wire Wire Line
	7750 4800 6250 4800
Wire Wire Line
	6250 4800 6250 5350
Wire Wire Line
	6250 5350 5350 5350
Wire Wire Line
	5350 5450 6300 5450
Wire Wire Line
	6300 5450 6300 4900
Wire Wire Line
	6300 4900 7750 4900
Wire Wire Line
	7750 5000 6350 5000
Wire Wire Line
	6350 5000 6350 5750
Wire Wire Line
	6350 5750 3800 5750
Wire Wire Line
	3800 5750 3800 5450
Wire Wire Line
	3800 5350 3750 5350
Wire Wire Line
	3750 5350 3750 5800
Wire Wire Line
	3750 5800 6400 5800
Wire Wire Line
	6400 5800 6400 5100
Wire Wire Line
	6400 5100 7750 5100
Wire Wire Line
	7750 5500 6450 5500
Wire Wire Line
	6450 5500 6450 5850
Wire Wire Line
	6450 5850 3700 5850
Wire Wire Line
	3700 5850 3700 5250
Wire Wire Line
	3700 5250 3800 5250
Wire Wire Line
	3800 5150 3650 5150
Wire Wire Line
	3650 5150 3650 5900
Wire Wire Line
	3650 5900 6500 5900
Wire Wire Line
	6500 5900 6500 5600
Wire Wire Line
	6500 5600 7750 5600
Wire Wire Line
	3800 5050 3600 5050
Wire Wire Line
	3600 5050 3600 5950
Wire Wire Line
	3600 5950 6550 5950
Wire Wire Line
	6550 5950 6550 5700
Wire Wire Line
	6550 5700 7750 5700
Wire Wire Line
	7750 5800 6600 5800
Wire Wire Line
	6600 5800 6600 6000
Wire Wire Line
	6600 6000 3550 6000
Wire Wire Line
	3550 6000 3550 4950
Wire Wire Line
	3550 4950 3800 4950
Wire Wire Line
	3500 6050 6650 6050
Wire Wire Line
	6650 6050 6650 5900
Wire Wire Line
	6650 5900 7750 5900
Wire Wire Line
	7750 6000 6700 6000
Wire Wire Line
	6700 6000 6700 6100
Wire Wire Line
	6700 6100 3450 6100
Wire Wire Line
	7750 6100 6750 6100
Wire Wire Line
	6750 6100 6750 6150
Wire Wire Line
	6750 6150 3350 6150
Wire Wire Line
	3400 6200 7750 6200
$Comp
L puissance_metre-rescue:AD8307 U1
U 1 1 563F7984
P 4200 2200
F 0 "U1" H 4200 2050 60  0000 C CNN
F 1 "AD8307" H 4150 2500 60  0000 C CNN
F 2 "Housings_SOIC:SOIC-8_3.9x4.9mm_Pitch1.27mm" H 4200 2200 60  0001 C CNN
F 3 "" H 4200 2200 60  0000 C CNN
	1    4200 2200
	1    0    0    -1  
$EndComp
Text Label 5350 4850 0    60   ~ 0
A1
Text Label 5350 4750 0    60   ~ 0
A2
Text Label 5350 4650 0    60   ~ 0
A3
Text Label 5350 4550 0    60   ~ 0
A4
Text Label 5350 4450 0    60   ~ 0
A5
Text Label 2550 5650 0    60   ~ 0
A0
Text Label 2550 5750 0    60   ~ 0
A1
Text Label 2550 5850 0    60   ~ 0
A2
Text Label 2550 5950 0    60   ~ 0
A3
Text Label 2550 6050 0    60   ~ 0
A4
Text Label 2550 6150 0    60   ~ 0
A5
Text Label 2550 4900 0    60   ~ 0
GND
Text Label 2550 4700 0    60   ~ 0
+5V
$Comp
L puissance_metre-rescue:7805 U3
U 1 1 56425729
P 7400 2350
F 0 "U3" H 7550 2154 60  0000 C CNN
F 1 "7805" H 7400 2550 60  0000 C CNN
F 2 "Discret:LM78XX-TO92" H 7400 2350 60  0001 C CNN
F 3 "" H 7400 2350 60  0000 C CNN
	1    7400 2350
	1    0    0    -1  
$EndComp
Wire Wire Line
	6700 2300 6900 2300
Wire Wire Line
	6700 2400 6700 2950
Wire Wire Line
	7400 2950 7400 2600
$Comp
L puissance_metre-rescue:C C3
U 1 1 56425B3A
P 6900 2550
F 0 "C3" H 6925 2650 50  0000 L CNN
F 1 "C" H 6925 2450 50  0000 L CNN
F 2 "Capacitors_SMD:C_0805" H 6938 2400 30  0001 C CNN
F 3 "" H 6900 2550 60  0000 C CNN
	1    6900 2550
	1    0    0    -1  
$EndComp
$Comp
L puissance_metre-rescue:C C6
U 1 1 56425BC5
P 8000 2550
F 0 "C6" H 8025 2650 50  0000 L CNN
F 1 "C" H 8025 2450 50  0000 L CNN
F 2 "Capacitors_SMD:C_1206" H 8038 2400 30  0001 C CNN
F 3 "" H 8000 2550 60  0000 C CNN
	1    8000 2550
	1    0    0    -1  
$EndComp
Wire Wire Line
	6900 2400 6900 2300
Connection ~ 6900 2300
Wire Wire Line
	6900 2700 6900 2950
Connection ~ 6900 2950
Wire Wire Line
	8000 2950 8000 2700
Connection ~ 7400 2950
Wire Wire Line
	7800 2300 8000 2300
Wire Wire Line
	8000 2400 8000 2300
Connection ~ 8000 2300
$Comp
L power:GND #PWR08
U 1 1 56426307
P 8200 2950
F 0 "#PWR08" H 8200 2700 50  0001 C CNN
F 1 "GND" H 8200 2800 50  0000 C CNN
F 2 "" H 8200 2950 60  0000 C CNN
F 3 "" H 8200 2950 60  0000 C CNN
	1    8200 2950
	1    0    0    -1  
$EndComp
$Comp
L puissance_metre-rescue:USB-UART U4
U 1 1 5654DB9A
P 7200 3550
F 0 "U4" H 7200 3550 60  0000 C CNN
F 1 "USB-UART" H 7100 3750 60  0000 C CNN
F 2 "lib_kicad:USB-UART" H 7200 3550 60  0001 C CNN
F 3 "" H 7200 3550 60  0000 C CNN
	1    7200 3550
	1    0    0    -1  
$EndComp
Wire Wire Line
	6700 2950 6900 2950
Connection ~ 8000 2950
Text Label 8050 3800 0    60   ~ 0
+5V
Text Label 8050 3700 0    60   ~ 0
GND
Wire Wire Line
	7800 3700 8050 3700
Wire Wire Line
	8050 3800 7800 3800
Text Label 3800 4500 2    60   ~ 0
RST
Text Label 3450 4300 0    60   ~ 0
TX
Text Label 3450 4400 0    60   ~ 0
RX
Text Label 8050 3500 0    60   ~ 0
TX
Text Label 8050 3600 0    60   ~ 0
RX
Wire Wire Line
	8050 3500 7800 3500
Wire Wire Line
	7800 3600 8050 3600
Wire Wire Line
	7800 3400 8250 3400
Text Label 8550 3400 0    60   ~ 0
RST
$Comp
L puissance_metre-rescue:C C7
U 1 1 5730E23A
P 8400 3400
F 0 "C7" H 8425 3500 50  0000 L CNN
F 1 "C" H 8425 3300 50  0000 L CNN
F 2 "Capacitors_SMD:C_0805" H 8438 3250 50  0001 C CNN
F 3 "" H 8400 3400 50  0000 C CNN
	1    8400 3400
	0    1    1    0   
$EndComp
$Comp
L puissance_metre-rescue:CONN_01X01 P3
U 1 1 563905BC
P 5500 2150
F 0 "P3" H 5500 2250 50  0000 C CNN
F 1 "CONN_01X01" V 5600 2150 50  0000 C CNN
F 2 "Socket_Strips:Socket_Strip_Straight_1x01" H 5500 2150 60  0001 C CNN
F 3 "" H 5500 2150 60  0000 C CNN
	1    5500 2150
	1    0    0    -1  
$EndComp
Wire Wire Line
	4900 2200 5300 2200
Wire Wire Line
	4350 1800 4350 1900
Wire Wire Line
	4350 1500 4350 1800
Wire Wire Line
	4600 900  4700 900 
Wire Wire Line
	2750 2400 2750 2450
Wire Wire Line
	3050 2400 3200 2400
Wire Wire Line
	3050 2050 3200 2050
Wire Wire Line
	3200 2050 3350 2050
Wire Wire Line
	2000 2300 2050 2300
Wire Wire Line
	2050 2300 2100 2300
Wire Wire Line
	2100 2300 2750 2300
Wire Wire Line
	6900 2300 7000 2300
Wire Wire Line
	6900 2950 7400 2950
Wire Wire Line
	7400 2950 8000 2950
Wire Wire Line
	8000 2300 8200 2300
Wire Wire Line
	8000 2950 8200 2950
$EndSCHEMATC
